Data wrangling and visualization in the tidyverse
…
surveys

## # A tibble: 34,786 x 13
##    record_id month   day  year plot_id species_id sex   hindfoot_length
##        <int> <int> <int> <int>   <int> <chr>      <chr>           <int>
##  1         1     7    16  1977       2 NL         M                  32
##  2        72     8    19  1977       2 NL         M                  31
##  3       224     9    13  1977       2 NL         <NA>               NA
##  4       266    10    16  1977       2 NL         <NA>               NA
##  5       349    11    12  1977       2 NL         <NA>               NA
##  6       363    11    12  1977       2 NL         <NA>               NA
##  7       435    12    10  1977       2 NL         <NA>               NA
##  8       506     1     8  1978       2 NL         <NA>               NA
##  9       588     2    18  1978       2 NL         M                  NA
## 10       661     3    11  1978       2 NL         <NA>               NA
## # ... with 34,776 more rows, and 5 more variables: weight <int>,
## #   genus <chr>, species <chr>, taxa <chr>, plot_type <chr>
…
Since we will use the same filtered and grouped data frame in multiple code chunks below, we could assign this subset of the data to a new variable and use this variable in the subsequent code chunks instead of typing out the functions each time.

filtered_surveys <- surveys %>%
    filter(!is.na(weight) & !is.na(sex)) %>%
    group_by(genus, sex)

If you want to display more data, you can use the print() function at the end of your chain with the argument n specifying the number of rows to display.

filtered_surveys %>%
    summarize(mean_weight = mean(weight)) %>%
    print(n = 15) # Will change the knitted output, not the notebook

## # A tibble: 20 x 3
## # Groups:   genus [?]
##    genus           sex   mean_weight
##    <chr>           <chr>       <dbl>
##  1 Baiomys         F            9.16
##  2 Baiomys         M            7.36
##  3 Chaetodipus     F           23.8 
##  4 Chaetodipus     M           24.7 
##  5 Dipodomys       F           55.2 
##  6 Dipodomys       M           56.2 
##  7 Neotoma         F          154.  
##  8 Neotoma         M          166.  
##  9 Onychomys       F           26.8 
## 10 Onychomys       M           26.2 
## 11 Perognathus     F            8.57
## 12 Perognathus     M            8.20
## 13 Peromyscus      F           22.5 
## 14 Peromyscus      M           20.6 
## 15 Reithrodontomys F           11.2 
## # ... with 5 more rows
…
Use group_by() and summarize() to find the mean, min, and max hindfoot length for each species.

What was the heaviest animal measured in each year? Return the columns year, genus, species, and weight.

## Answer 1
surveys %>%
    filter(!is.na(hindfoot_length)) %>%
    group_by(species) %>%
    summarize(
        mean_hindfoot_length = mean(hindfoot_length),
        min_hindfoot_length = min(hindfoot_length),
        max_hindfoot_length = max(hindfoot_length)
    )

## # A tibble: 22 x 4
##    species     mean_hindfoot_length min_hindfoot_length max_hindfoot_leng…
##    <chr>                      <dbl>               <dbl>              <dbl>
##  1 albigula                    32.3                  21                 70
##  2 baileyi                     26.1                   2                 47
##  3 eremicus                    20.2                  11                 30
##  4 flavus                      15.6                   7                 38
##  5 fulvescens                  17.5                  15                 20
##  6 fulviventer                 26.7                  21                 38
##  7 harrisi                     33                    31                 35
##  8 hispidus                    28.0                  20                 39
##  9 intermedius                 22.2                  20                 23
## 10 leucogaster                 20.5                  12                 39
## # ... with 12 more rows

## Answer 2
surveys %>%
    filter(!is.na(weight)) %>%
    group_by(year) %>%
    filter(weight == max(weight)) %>% # This is going to compare to the max weight within each group
    select(year, genus, species, weight) %>%
    arrange(year)

## # A tibble: 27 x 4
## # Groups:   year [26]
##     year genus     species     weight
##    <int> <chr>     <chr>        <int>
##  1  1977 Dipodomys spectabilis    149
##  2  1978 Neotoma   albigula       232
##  3  1978 Neotoma   albigula       232
##  4  1979 Neotoma   albigula       274
##  5  1980 Neotoma   albigula       243
##  6  1981 Neotoma   albigula       264
##  7  1982 Neotoma   albigula       252
##  8  1983 Neotoma   albigula       256
##  9  1984 Neotoma   albigula       259
## 10  1985 Neotoma   albigula       225
## # ... with 17 more rows
…
Here, tally() is the action applied to the groups created by group_by() and counts the total number of records for each category.

If there are many groups, tally() is not that useful on its own. For example, when we want to view the five most abundant species among the observations:

surveys %>%
    group_by(species) %>%
    tally()

## # A tibble: 40 x 2
##    species             n
##    <chr>           <int>
##  1 albigula         1252
##  2 audubonii          75
##  3 baileyi          2891
##  4 bilineata         303
##  5 brunneicapillus    50
##  6 chlorurus          39
##  7 clarki              1
##  8 eremicus         1299
##  9 flavus           1597
## 10 fulvescens         75
## # ... with 30 more rows

Since there are 40 rows in this output, we would like to order the table to display the most abundant species first. In dplyr, we say that we want to arrange() the data.

surveys %>%
    group_by(species) %>%
    tally() %>%
    arrange(n)

## # A tibble: 40 x 2
##    species          n
##    <chr>        <int>
##  1 clarki           1
##  2 scutalatus       1
##  3 tereticaudus     1
##  4 tigris           1
##  5 uniparens        1
##  6 viridis          1
##  7 leucophrys       2
##  8 savannarum       2
##  9 fuscus           5
## 10 undulatus        5
## # ... with 30 more rows
…
Great! Together with the genus plot, this definitely seem to explain most of the variance we see in the hindfoot length and weight measurements. It is still a bit messy as it appears like we have around 5 clusters, but there are 21 species in the legend.

surveys %>%
    filter(!is.na(hindfoot_length) & !is.na(weight)) %>%
    group_by(species) %>%
    tally() %>%
    arrange(desc(n))

## # A tibble: 21 x 2
##    species          n
##    <chr>        <int>
##  1 merriami      9739
##  2 penicillatus  2978
##  3 baileyi       2808
##  4 ordii         2793
##  5 megalotis     2429
##  6 torridus      2085
##  7 spectabilis   2026
##  8 flavus        1471
##  9 eremicus      1200
## 10 albigula      1046
## # ... with 11 more rows
…
surveys_abun_species <- surveys %>%
    filter(!is.na(hindfoot_length) &
        !is.na(weight) &
        species %in% abundant_species$species)

surveys_abun_species

## # A tibble: 30,320 x 13
##    record_id month   day  year plot_id species_id sex   hindfoot_length
##        <int> <int> <int> <int>   <int> <chr>      <chr>           <int>
##  1       845     5     6  1978       2 NL         M                  32
##  2      1164     8     5  1978       2 NL         M                  34
##  3      1261     9     4  1978       2 NL         M                  32
##  4      1756     4    29  1979       2 NL         M                  33
##  5      1818     5    30  1979       2 NL         M                  32
##  6      1882     7     4  1979       2 NL         M                  32
##  7      2133    10    25  1979       2 NL         F                  33
##  8      2184    11    17  1979       2 NL         F                  30
##  9      2406     1    16  1980       2 NL         F                  33
## 10      3000     5    18  1980       2 NL         F                  31
## # ... with 30,310 more rows, and 5 more variables: weight <int>,
## #   genus <chr>, species <chr>, taxa <chr>, plot_type <chr>
…
Split-apply-combine… plot!

In this section, we will learn how to work with **dplyr** and **ggplot** together. Aided by the pipes (%>%), we can create a powerful data exploration workflow using these two packages.

Let’s calculate number of counts per year for each species. First we need to group the data and count records within each group:

surveys_abun_species %>%
    group_by(year, genus) %>%
    tally() %>%
    arrange(desc(n)) # Adding arrange just to compare with histogram

## # A tibble: 178 x 3
## # Groups:   year [26]
##     year genus           n
##    <int> <chr>       <int>
##  1  2002 Chaetodipus  1243
##  2  1983 Dipodomys     953
##  3  1985 Dipodomys     951
##  4  2000 Chaetodipus   913
##  5  1982 Dipodomys     896
##  6  1997 Dipodomys     830
##  7  2001 Chaetodipus   781
##  8  1981 Dipodomys     733
##  9  1987 Dipodomys     688
## 10  1980 Dipodomys     667
## # ... with 168 more rows
…
Now we would like to split the line in each plot by the sex of each individual measured. To do that we need to make counts in the data frame grouped by year, species, and sex:

surveys_abun_species %>%
    group_by(year, species, sex) %>%
    tally()

## # A tibble: 575 x 4
## # Groups:   year, species [?]
##     year species     sex       n
##    <int> <chr>       <chr> <int>
##  1  1977 eremicus    M         2
##  2  1977 flavus      F        14
##  3  1977 flavus      M         8
##  4  1977 leucogaster F         1
##  5  1977 leucogaster <NA>      1
##  6  1977 megalotis   F         1
##  7  1977 megalotis   M         1
##  8  1977 merriami    F        75
##  9  1977 merriami    M       106
## 10  1977 ordii       F        10
## # ... with 565 more rows
…
